{
  "result": "success",
  "userList": {
    "current_page": 1,
    "data": [
      {
        "id": 1485,
        "first_name": "Mehmet",
        "last_name": "G\u00fcrbo\u011fa",
        "expo_mail": "ioreilly",
        "expo_mail_domain": null,
        "country_id": 212,
        "picture": null,
        "binarycode": "TR"
      },
      {
        "id": 1501,
        "first_name": "Alp",
        "last_name": "Tahta",
        "expo_mail": "tyrell02",
        "expo_mail_domain": null,
        "country_id": 212,
        "picture": null,
        "binarycode": "TR"
      },
      {
        "id": 1494,
        "first_name": "test",
        "last_name": "test",
        "expo_mail": "pprice",
        "expo_mail_domain": null,
        "country_id": 1,
        "picture": null,
        "binarycode": "AF"
      },
      {
        "id": 86,
        "first_name": null,
        "last_name": null,
        "expo_mail": "christiana68",
        "expo_mail_domain": null,
        "country_id": 212,
        "picture": null,
        "binarycode": "TR"
      },
      {
        "id": 88,
        "first_name": "asdasd",
        "last_name": null,
        "expo_mail": "wehner.izaiah",
        "expo_mail_domain": null,
        "country_id": 212,
        "picture": null,
        "binarycode": "TR"
      },
      {
        "id": 87,
        "first_name": "Demo",
        "last_name": null,
        "expo_mail": "gavin.sauer",
        "expo_mail_domain": null,
        "country_id": 212,
        "picture": null,
        "binarycode": "TR"
      },
      {
        "id": 92,
        "first_name": null,
        "last_name": null,
        "expo_mail": "mraz.lavada",
        "expo_mail_domain": null,
        "country_id": 212,
        "picture": null,
        "binarycode": "TR"
      },
      {
        "id": 970,
        "first_name": "asdasd",
        "last_name": "sadasdsa",
        "expo_mail": "oreilly.samanta",
        "expo_mail_domain": null,
        "country_id": 212,
        "picture": null,
        "binarycode": "TR"
      },
      {
        "id": 1504,
        "first_name": "Alp",
        "last_name": "Tahta",
        "expo_mail": "xjacobson",
        "expo_mail_domain": null,
        "country_id": 212,
        "picture": null,
        "binarycode": "TR"
      },
      {
        "id": 1517,
        "first_name": "MEHEMT",
        "last_name": "G\u00dcRBOGA",
        "expo_mail": "nichole.pacocha",
        "expo_mail_domain": null,
        "country_id": 212,
        "picture": null,
        "binarycode": "TR"
      },
      {
        "id": 42,
        "first_name": null,
        "last_name": null,
        "expo_mail": "qpacocha",
        "expo_mail_domain": null,
        "country_id": 212,
        "picture": "https://static-content-vexpo.s3.eu-central-1.amazonaws.com/reactsite/assets/img/profilePic.jpg",
        "binarycode": "TR"
      },
      {
        "id": 135,
        "first_name": null,
        "last_name": null,
        "expo_mail": "czboncak",
        "expo_mail_domain": null,
        "country_id": 212,
        "picture": null,
        "binarycode": "TR"
      },
      {
        "id": 66,
        "first_name": null,
        "last_name": null,
        "expo_mail": "cletus.keeling",
        "expo_mail_domain": null,
        "country_id": 212,
        "picture": null,
        "binarycode": "TR"
      },
      {
        "id": 48,
        "first_name": null,
        "last_name": null,
        "expo_mail": "grant.freddy",
        "expo_mail_domain": null,
        "country_id": 212,
        "picture": null,
        "binarycode": "TR"
      },
      {
        "id": 74,
        "first_name": null,
        "last_name": null,
        "expo_mail": "heaney.wyatt",
        "expo_mail_domain": null,
        "country_id": 212,
        "picture": null,
        "binarycode": "TR"
      },
      {
        "id": 56,
        "first_name": null,
        "last_name": null,
        "expo_mail": "emreo\u011flu",
        "expo_mail_domain": "avmmerkezi.com",
        "country_id": 212,
        "picture": "https://s3.eu-central-1.amazonaws.com/static-content-vexpo/expo/profilecontent/photos/Z43VONMq9hQD4jyO7DosxWKGNPxEZ4yEqQvIVbu9.png",
        "binarycode": "TR"
      },
      {
        "id": 67,
        "first_name": null,
        "last_name": null,
        "expo_mail": "kaylin12",
        "expo_mail_domain": null,
        "country_id": 212,
        "picture": null,
        "binarycode": "TR"
      },
      {
        "id": 1382,
        "first_name": "Alp",
        "last_name": "Tahta",
        "expo_mail": "klein.kadin",
        "expo_mail_domain": null,
        "country_id": 212,
        "picture": null,
        "binarycode": "TR"
      },
      {
        "id": 130,
        "first_name": null,
        "last_name": null,
        "expo_mail": "joesph.wolff",
        "expo_mail_domain": null,
        "country_id": 212,
        "picture": null,
        "binarycode": "TR"
      },
      {
        "id": 133,
        "first_name": null,
        "last_name": null,
        "expo_mail": "ramona.quitzon",
        "expo_mail_domain": null,
        "country_id": 212,
        "picture": null,
        "binarycode": "TR"
      }
    ],
    "first_page_url": "http://192.168.1.74:8000/v1/mail/user-by-name-and-mail?page=1",
    "from": 1,
    "last_page": 2,
    "last_page_url": "http://192.168.1.74:8000/v1/mail/user-by-name-and-mail?page=2",
    "next_page_url": "http://192.168.1.74:8000/v1/mail/user-by-name-and-mail?page=2",
    "path": "http://192.168.1.74:8000/v1/mail/user-by-name-and-mail",
    "per_page": 20,
    "prev_page_url": null,
    "to": 20,
    "total": 40
  }
}
